65551 968393 525
599228 107851 470
408732 526965 470
404530 541204 470
406258 447887 449
145379 368090 443
818389 207761 509
313955 273056 389
729514 417109 509
794850 280950 509
561682 520543 452
989652 622892 525
446163 510743 444
257883 164165 443
299782 400740 441
383815 993920 525
686455 726552 504
273491 447569 449
644001 308175 509
384901 327108 441
690250 912672 525
634357 675808 442
895758 366149 525
199569 633200 509
279300 687608 509
916271 417152 525
520466 240121 470
757135 179077 509
97489 987926 525
15694 79084 351
640177 302557 509
572397 189576 470
714900 356714 509
126142 300112 443
830133 780076 468
928406 226363 525
299892 253053 407
436088 461057 400
472515 889823 525
165664 311918 443
522468 624260 452
859147 801960 525
201081 28479 383
114724 46912 354
994604 305937 525
722998 504741 509
904234 954331 507
246580 343128 407
337946 736225 509
258330 252842 363
590843 149935 470
153332 502618 449
425926 999643 525
902550 773644 525
80093 261683 443
708765 743413 424
324047 202136 443
408378 206891 443
697029 38566 509
390948 723728 509
774799 743639 468
886175 658889 525
654615 506027 509
907025 976520 507
168153 643951 509
139040 886846 525
984111 411726 525
578817 785394 509
311160 128934 443
529075 720583 509
740613 343398 509
859112 593611 525
824637 943050 525
536003 601801 452
362041 813478 509
476052 384022 449
86686 964541 525
222848 151475 386
862133 360483 525
425776 518845 470
776823 225459 509
151341 930596 525
230790 798216 509
74805 698089 509
281783 525769 470
489900 449811 444
838043 295792 525
446099 49893 449
125128 151401 375
486019 259733 449
472333 668595 509
394636 662945 509
797655 601145 509
61979 832467 509
138692 60429 354
873202 171442 525
712474 886106 525
168064 490904 449
350050 897359 525
562859 726492 509
126968 827518 509
456046 686084 509
297240 480528 449
294708 441809 449
60605 307355 443
98948 644273 509
933819 790910 525
853313 380055 525
761413 727016 424
667649 984811 525
909654 490355 525
643524 775479 504
70324 60444 335
947459 777280 525
521521 562310 452
258159 918928 525
577079 111378 470
72370 924035 525
697111 453665 509
479212 759745 509
137260 333548 443
133488 602511 470
104576 697909 509
21064 186921 383
414069 91428 449
157034 907567 525
220635 257471 443
153610 210969 383
593671 535992 452
230363 953074 525
789056 525467 509
721890 48089 509
783402 194451 509
514999 801108 509
663421 972400 525
830719 157549 509
58356 561811 470
696610 272343 509
784781 822501 468
426932 388097 449
424501 230408 449
502314 914703 525
8555 630594 509
982656 364146 525
286506 92910 443
567367 285939 470
145839 591731 470
506043 715402 509
881011 586450 525
562775 399508 470
298136 89188 443
393519 148514 443
155373 643806 509
599099 955986 525
403298 765348 509
621216 698655 509
335138 947517 525
741641 691453 504
440499 339028 449
62799 925006 525
23947 792433 509
477203 346048 449
689569 825732 504
876037 768155 525
457292 331541 449
65213 967212 525
895618 195636 525
828883 950590 525
910598 243422 525
10444 544500 470
77840 973345 525
678599 14342 509
911164 391647 525
670095 381303 509
695225 508618 509
493172 903314 525
83051 886480 525
400424 405345 387
663770 966014 525
295042 673907 509
683294 832457 504
457207 367699 449
792475 316750 509
387092 150256 443
470439 742045 509
968898 391958 525
724872 90097 509
790423 311885 509
303531 625477 470
361041 949505 525
518344 100290 470
880437 949243 507
298022 997066 525
564274 834654 509
93528 421868 449
178294 540318 470
361845 839860 525
893227 694080 525
600800 29681 470
947387 870314 507
513968 894013 525
702213 631861 442
402096 877340 525
962183 390093 525
774119 742834 468
347015 611386 470
688981 426361 509
986780 35520 525
975517 147893 525
173714 33959 383
699078 67529 509
357530 65131 443
648189 460541 509
588301 256328 470
976910 380768 525
700176 54456 509
970583 227973 525
420867 207417 449
326315 710088 509
437126 429538 387
801877 542854 509
299793 442349 449
353795 443261 449
862759 852156 419
710937 121016 509
77092 586364 470
209931 712338 509
69706 786655 509
565234 438950 470
378610 206311 443
751464 920304 525
258454 909197 525
261895 533859 470
426864 390944 449
688254 586188 509
308613 985687 525
951331 236789 525
750931 807104 468
365428 811061 509
13484 12939 276
263124 158114 443
220657 763718 509
682362 205523 509
356612 687124 509
243124 164889 443
808778 985055 525
389294 836528 509
966814 589345 525
670528 360383 509
62592 814858 509
830574 203419 509
466578 77642 449
854659 257605 525
937632 711860 525
57929 365631 443
573003 975039 525
847704 53590 525
869008 116106 525
191484 93512 383
685179 429023 509
613836 910014 525
628515 471000 509
55117 709147 509
485821 715766 509
221956 558543 470
637972 462004 509
546989 349891 470
450486 592832 470
707964 372370 509
609282 154151 470
33407 648668 509
770395 498486 509
385844 146042 443
561375 112769 470
639969 404682 509
435202 149917 449
436569 789738 509
971876 307125 525
51510 546667 470
677765 843862 525
530376 233666 470
33626 494665 449
363376 971193 525
993886 407636 525
645496 238930 509
818643 939752 525
792260 653559 504
942839 433357 525
703455 367954 509
141546 796602 509
500258 41149 449
273264 576848 470
777663 462260 509
231462 268133 407
568144 934929 525
565950 544088 452
880415 129602 525
39009 845356 525
73573 350718 443
275681 778297 509
