921410 419262 525
542888 841968 525
364723 613956 470
5189 124599 354
610427 587657 403
906991 355919 525
742364 588171 509
398566 908667 525
940647 560014 525
343088 360130 441
897902 685003 525
905673 137045 525
159578 677822 509
630810 639118 416
341885 429554 449
907025 636517 525
176733 635780 509
582027 184654 470
181734 512045 470
508486 19414 449
6675 504907 449
191057 608151 470
767137 674484 504
697569 144630 509
667576 569689 509
643816 886326 525
106142 451831 449
715799 787875 468
618891 609432 447
12822 605788 470
835582 727544 468
7422 925914 525
12811 905956 525
675675 967944 525
521875 219259 470
659582 224375 509
315506 589306 470
919237 956306 507
435778 632155 509
49004 116289 354
727723 748866 424
730210 678815 504
496740 887990 525
310444 724651 509
80264 785434 509
834948 202112 509
802552 210939 509
80249 266672 443
432596 444253 400
478754 483604 413
436208 818132 509
90268 741208 509
652628 496400 509
68865 917872 525
627830 352929 509
437785 401408 449
44803 798691 509
591338 993739 525
771276 50180 509
162128 631456 509
669272 228510 509
339088 228421 443
878994 543968 525
994472 798471 525
899698 859543 445
523481 751693 509
913389 697286 525
185193 862785 525
437353 801107 509
144736 199579 383
243082 139524 443
180202 350759 443
828350 864134 525
694638 47603 509
819139 186213 509
897223 656346 525
173859 478257 449
982774 733096 525
792022 758910 468
575599 62598 470
574763 743507 509
278913 993185 525
599923 978867 525
743164 772967 468
458599 34711 449
592166 154953 470
451823 465210 444
809594 79311 509
317997 799873 509
543074 520362 408
181974 238610 443
727512 695801 504
665716 996104 525
896005 786977 525
897452 652256 525
607885 598221 403
70818 708457 509
843924 539379 525
111656 527717 470
394498 759895 509
401668 384602 436
583640 764717 509
64135 298298 443
441417 636018 509
327791 538487 470
739992 338783 509
397320 535937 470
242451 951806 525
890776 18350 525
964379 630133 525
662853 902726 525
662983 318026 509
84168 635955 509
342867 977216 525
323951 285717 389
76977 187076 383
452842 598908 470
254178 664864 509
816346 457239 509
36123 296511 443
349498 318156 441
785788 677449 504
123603 529397 470
136432 744559 509
665852 541801 509
927918 142955 525
813702 780316 468
725683 694030 504
336711 956185 525
842525 378400 525
207663 336694 443
468643 372538 449
164407 933814 525
65453 225416 386
18393 247102 443
795577 418553 509
392256 705243 509
477133 163891 449
222455 557831 470
728236 587134 509
437520 525673 470
108001 803080 509
450716 805927 509
536938 539084 377
194775 498325 449
388114 425038 449
714298 525633 509
469306 397957 449
339747 494824 449
408913 163278 443
615596 5117 470
360522 484064 449
928461 129965 525
105063 518371 470
111445 706343 509
438176 498081 444
14309 789972 509
563465 54819 470
300725 276520 389
891725 301926 525
932204 907441 476
608759 79809 470
807321 573277 509
161343 946843 525
520563 924474 525
587368 733841 509
626173 657460 509
529278 605827 452
496765 552270 470
208222 396843 443
547502 67620 470
501271 555073 470
689288 770359 504
455821 739286 509
851699 124072 525
830084 782447 468
347879 949453 525
47725 10260 324
584618 586669 359
143116 670478 509
236002 912852 525
438756 768379 509
881915 362580 525
357321 758080 509
580560 692630 509
872211 878388 432
728917 601693 509
124045 877484 525
238423 108413 443
819413 278051 509
439659 261143 449
232339 477835 449
315170 836902 509
676281 319486 509
421649 445977 418
345854 81503 443
524978 732483 509
297388 746963 509
109750 831549 509
434461 140246 449
761597 898410 525
193084 610084 470
34362 413646 449
794482 321585 509
575837 556571 421
898671 668951 525
348050 966013 525
367979 208854 443
770479 123596 509
958309 629106 525
407172 790183 509
501061 221140 449
44568 823808 509
978651 405864 525
614970 875664 525
286894 506556 449
938831 754253 525
746319 559692 509
603891 126311 470
871290 145144 525
730041 463722 509
456157 244786 449
464120 731347 509
999394 858149 507
703925 82088 509
797328 979768 525
794937 54566 509
951383 17585 525
161856 182112 365
459646 348206 449
458114 207150 449
20201 554013 470
853782 5285 525
662041 201117 509
564191 883227 525
548812 820710 509
914185 830221 525
336508 7672 443
612872 362206 470
91554 638306 509
877758 850180 432
633134 353713 509
285208 208764 443
188478 927340 525
52256 217695 386
607396 252697 470
549017 114803 470
823754 985258 525
655841 127523 509
809848 375649 509
428741 672623 509
804219 541458 509
551876 187031 470
173931 154608 383
429805 630323 509
730657 907372 525
994160 134501 525
398195 150032 443
49378 125552 354
896011 823574 525
454367 950612 525
358812 646263 509
438936 388224 449
751994 323949 509
942165 117401 525
554433 982086 525
799278 345569 509
875279 44854 525
65950 23747 340
643476 93704 509
846997 454324 525
613076 690119 509
206417 756660 509
930496 382762 525
582791 465097 470
442342 648488 509
689327 469181 509
91903 275337 443
758284 416251 509
136940 528425 470
68747 808162 509
755530 342519 509
223575 424443 449
220767 704907 509
536236 480604 470
948899 33191 525
124515 110453 349
423225 330849 449
208926 604939 470
486548 344575 449
241835 131522 443
695835 87139 509
599893 42074 470
645730 256398 509
168279 380743 443
301892 794304 509
468675 238077 449
487081 654341 509
133351 682667 509
489090 511882 426
