689632 705717 504
128478 603923 470
700003 783159 504
255413 952711 525
89254 326822 443
397642 959869 525
524472 622213 452
676545 808170 504
636249 932067 525
372286 971670 525
607988 664542 509
338056 533049 470
467796 699260 509
582578 916602 525
350137 637368 509
82697 648916 509
118209 735298 509
92989 512990 470
33843 308385 443
475614 522571 470
600735 956286 525
787943 957514 525
465397 870011 525
621978 996419 525
648981 898497 525
695593 883868 525
64723 626265 470
338541 870723 525
579626 939786 525
405928 984274 525
20443 394221 443
178474 597679 470
415356 966498 525
6953 500008 449
72398 766616 509
220005 879221 525
273926 336745 389
619189 727283 509
178699 471197 449
251745 588808 470
417756 457189 418
539079 724395 509
381004 745720 509
361295 568475 470
259456 699902 509
224682 926704 525
127066 171898 383
225971 604490 470
377025 686451 509
199374 263244 443
539833 994049 525
49428 196243 383
134634 143634 375
6816 755212 509
578421 929805 525
776692 976847 525
715347 891387 525
187898 485671 449
593123 677693 509
199899 255106 443
530053 993466 525
112004 146870 375
143594 664675 509
777907 931790 525
534135 719485 509
746900 809490 468
500726 618148 470
684130 955332 525
126134 757074 509
534281 665009 509
1331 724580 509
371331 537115 470
539983 721756 509
504723 820700 509
79609 706461 509
568714 905625 525
68434 821491 509
89661 254170 443
97023 578265 470
544889 794300 509
509243 555137 470
74712 697879 509
5019 304444 443
769720 946680 525
225980 806609 509
117860 522645 470
149027 257201 443
653214 885263 525
199402 959461 525
179055 640502 509
84768 100106 333
699286 948269 525
77630 252742 443
156829 344142 443
799641 989850 525
181108 795479 509
238945 318517 407
711843 841668 525
472472 858067 525
730111 860603 525
368586 739206 509
343632 826903 509
21168 550499 470
116499 993764 525
156304 411001 449
371618 564944 470
362771 665290 509
758037 978132 525
680676 750344 504
469609 724376 509
532165 562615 452
120497 257219 443
45077 563181 470
594185 597950 372
508690 959675 525
236888 783891 509
523945 812725 509
497597 639189 509
547366 925680 525
29559 136128 354
711201 963632 525
5387 339756 443
788533 953724 525
775765 909779 525
466929 859301 525
772934 827331 468
509156 759472 509
39532 510951 449
224124 704052 509
151868 810461 509
158572 936419 525
17187 469837 449
500489 998869 525
705740 966206 525
326405 788566 509
572391 848685 525
631576 770945 504
263681 735942 509
543201 863711 525
700986 928509 525
528823 790898 509
345023 451300 449
423674 725514 509
798976 807092 406
619674 916853 525
112927 397165 443
262400 653958 509
97944 454649 449
773252 961952 525
230828 298193 407
484234 850438 525
335247 969877 525
580792 900768 525
166618 681416 509
24219 682456 509
47359 388060 443
40756 200915 383
688559 884239 525
236831 396038 441
259874 294222 407
55952 720246 509
622995 749391 509
564054 728566 509
578974 737864 509
676675 685042 380
602922 712610 509
669535 942380 525
487610 858894 525
692809 800794 504
538834 972924 525
351430 462187 449
674539 724928 504
730720 910689 525
475697 899486 525
652080 799956 504
37157 998214 525
509813 958358 525
349562 598005 470
112952 172878 383
272036 599999 470
665841 834080 504
94169 431440 449
547747 688573 509
99151 889230 525
453008 941309 525
667953 958589 525
74107 652327 509
369911 559306 470
159460 629134 509
359039 882358 525
234817 333376 407
527589 995930 525
201090 606063 470
613025 976268 525
24742 320664 443
406057 738033 509
775365 880907 525
88549 123174 354
651100 765176 504
738465 787929 468
153220 900781 525
687981 731090 504
112988 660887 509
721403 750376 424
677946 972708 525
697582 800726 504
208832 637687 509
182875 483488 449
497109 614047 470
455858 918028 525
514541 768529 509
625068 701654 509
214780 708061 509
773475 932075 525
130030 920280 525
658075 972629 525
759583 968847 525
138846 330851 443
342949 372692 441
550709 818966 509
178185 573370 470
722302 994736 525
219402 442388 449
738318 984056 525
397493 450827 449
486547 841670 525
361739 385738 423
267705 748569 509
352401 729689 509
216536 277845 443
25417 730178 509
646310 737711 504
341480 522324 470
390241 663702 509
288932 323810 384
541526 841669 525
297636 368045 441
358733 913152 525
101774 744560 509
136107 876251 525
341592 351334 441
615819 961156 525
779919 912802 525
561920 797851 509
431831 968043 525
250990 551324 470
260992 550944 470
686416 908683 525
334137 424026 449
184184 637435 509